39 7f084bec4039
61 7f084bec3061
73 7f084bec3073
88 7f084bec3088
90 7f084bec5090
c5 7f084bec50c5
f2 7f084bec30f2
118 7f084bec3118
124 7f084bec3124
128 7f084bec5128
137 7f084bec5137
149 7f084bec5149
14b 7f084bec314b
150 7f084bec5150
151 7f084bf03150
15a 7f084bec515a
166 7f084bec5166
174 7f084bec5174
180 7f084bf03180
185 7f084bec5185
1b0 7f084bc401b0
1c1 7f084bec51c1
1d1 7f084bc401d1
1d7 7f084bec51d7
1df 7f084bec51df
1f4 7f084bec51f4
1fe 7f084bec51fe
200 7f084c442200
212 7f084c437212
215 7f084bec3215
22e 7f084c43722e
235 7f084c442235
240 7f084c437240
24c 7f084c43724c
258 7f084c437258
270 7f084bf45270
280 7f084c43c280
289 7f084bf45289
296 7f084bf45296
29c 7f084c43c29c
29e 7f084c43729e
2a9 7f084c43c2a9
2bb 7f084c43c2bb
2e0 7f084bf452e0
2f3 7f084bf452f3
309 7f084bf45309
30e 7f084c43c30e
311 7f084bf45311
390 7f084c43c390
395 7f084c43c395
3a0 7f084bebf3a0
3b2 7f084c43c3b2
3c0 7f084c4463c0
3c8 7f084c43c3c8
3d2 7f084c43c3d2
3df 7f084c43c3df
3e2 7f084c4463e2
3e4 7f084c43c3e4
3f0 7f084c4373f0
400 400400
409 400409
40e 40040e
410 7f084bec8410
413 400413
419 7f084bec8419
420 400420
428 7f084bebf428
42f 7f084c43742f
430 400430
436 400436
438 7f084c437438
440 7f084c43d440
441 400440
442 7f084bebf442
446 400446
44f 7f084c44644f
450 400450
453 7f084c437453
454 7f084c446454
455 7f084c43d455
456 400456
45e 7f084c43d45e
460 400460
461 7f084c446460
463 7f084bebf463
468 7f084c43c468
470 7f084c43c470
471 7f084c43d470
474 7f084c446474
479 7f084c43d479
47e 7f084c43747e
484 7f084c43d484
48b 7f084c43748b
48c 40048c
49e 40049e
4a0 7f084c4374a0
4a1 7f084c43d4a0
4aa 7f084bec34aa
4b0 4004b0
4b4 7f084c4374b4
4b7 7f084bec34b7
4b8 7f084bebf4b7
4c2 4004c2
4e1 7f084c4374e1
4e4 7f084bec34e4
4e8 7f084bec34e8
4ef 7f084bebf4ef
4f0 7f084bec34f0
4f8 7f084bec34f8
500 7f084c43c500
506 400506
520 400520
521 7f084be7e520
523 7f084c437523
527 7f084c437527
52a 7f084c43c52a
534 7f084c437534
538 7f084bebf538
53c 7f084c43753c
53f 7f084be7e53f
540 400540
541 7f084be7e540
544 400544
54c 7f084c43754c
54e 7f084be7e54e
550 7f084c446550
552 7f084bebf552
556 7f084bec3556
559 7f084c446559
55d 7f084c44655d
55f 7f084c43c55f
560 7f084bebf55f
565 7f084c437565
569 400569
56c 7f084be7e56c
570 7f084bec3570
571 7f084c43c570
573 7f084c437573
576 7f084bebf576
57f 40057f
580 7f084c44657f
581 7f084c43c581
584 7f084c437584
594 400594
596 7f084bebf596
597 7f084c43c597
598 7f084be7e598
59b 7f084c43c59b
5a0 4005a0
5a9 4005a9
5b0 7f084bebf5b0
5b1 7f084be7e5b1
5b8 7f084c43c5b8
5be 7f084bebf5be
5c1 7f084c43c5c1
5c9 7f084c43c5c9
5d0 7f084c43c5d0
5d8 7f084be7e5d8
5e5 7f084be7e5e5
5e7 7f084c43c5e7
5ea 7f084be7e5ea
5f0 7f084c43c5f0
5f9 4005f9
5fa 7f084c43c5f9
5fd 7f084be7e5fd
600 7f084be7e600
601 7f084c43c601
609 7f084be7e609
60e 40060e
611 7f084c43c611
619 7f084c43c619
620 7f084be7e620
623 400623
62a 7f084c43c62a
630 400630
631 7f084bebf630
63d 7f084c43c63d
645 7f084bebf645
651 400651
658 7f084bebf658
668 7f084bebf668
670 7f084c43c670
675 400675
677 7f084bebf677
67b 7f084bec367b
67c 40067c
680 7f084c43b680
681 7f084be64680
682 7f084be7c680
684 400684
685 7f084bebf685
68a 7f084c44668a
68d 40068d
690 7f084be7c690
6a0 7f084be7e6a0
6ae 4006ae
6b5 4006b5
6b9 7f084be646b9
6bc 7f084c43c6bc
6bd 4006bd
6c7 7f084be646c7
6c9 7f084be7e6c9
6ca 4006c9
6cf 7f084c43c6cf
6d3 7f084be646d3
6d5 4006d5
6d6 7f084be7e6d6
6da 7f084c43b6da
6db 7f084c4466da
6e6 7f084be646e6
6e7 7f084c43b6e7
6e8 7f084be7e6e7
6e9 7f084c43c6e8
6ea 7f084c42e6ea
6eb 7f084be646eb
6f0 7f084be7f6f0
6f6 7f084c43b6f6
700 7f084be64700
704 400704
710 7f084c42e710
711 7f084bebf710
715 7f084be64715
71e 7f084be6471e
720 7f084c222720
721 7f084c42e720
727 7f084bebf727
728 7f084be64728
72c 7f084be6472c
72f 7f084c43b72f
737 7f084be7e737
73a 7f084c44673a
740 7f084be7f740
741 7f084c43c740
750 7f084bec3750
760 7f084be7f760
76a 7f084be7e76a
76b 7f084bec376a
76d 7f084be6476d
76e 7f084be7f76e
774 7f084c43b774
775 7f084be64774
776 7f084c43c774
77b 7f084be7f77b
77d 7f084bec377d
783 7f084c43b783
784 7f084be7f784
789 400789
78a 7f084c44678a
78f 7f084c43b78f
790 7f084bec3790
791 7f084be7e791
795 400795
799 400799
79d 7f084be7e79d
7a4 7f084c43b7a4
7a5 4007a5
7a9 7f084c43b7a9
7aa 4007a9
7b0 7f084c43c7b0
7b2 7f084be7e7b2
7b5 7f084be7f7b5
7b6 4007b5
7b7 7f084be7e7b7
7bd 7f084c43c7bd
7c0 7f084c43b7c0
7c1 4007c0
7c2 7f084be7f7c0
7c4 7f084c43c7c4
7c7 7f084be7e7c7
7c8 7f084be7f7c8
7ca 7f084c43b7ca
7d8 7f084be7f7d8
7da 7f084c43c7da
7e2 7f084be7f7e2
7e6 7f084c43c7e6
7ea 7f084be7f7ea
7f0 7f084bf737f0
7f1 7f084c43c7f1
7f2 7f084c2227f0
7fa 7f084be7f7fa
805 400805
820 7f084be7f820
826 400826
828 7f084bf73828
829 7f084be7f829
82a 7f084c43c829
82f 7f084c43c82f
837 7f084c43c837
839 7f084bf73839
840 7f084be7f840
84a 7f084c44684a
84b 7f084bf7384b
850 7f084bf73850
856 7f084c43c856
85e 7f084c43c85e
860 400860
861 7f084bf73860
86d 7f084bf7386d
86e 7f084c43c86e
87b 7f084c43c87b
880 7f084be7e880
883 7f084c43c883
88f 40088f
890 7f084c43c890
898 400898
8a1 4008a1
8a8 7f084be7e8a8
8a9 7f084c43c8a8
8aa 7f084be7f8aa
8ad 7f084be7e8ad
8af 7f084be7f8af
8b7 7f084be7f8b7
8c0 7f084be7f8c0
8c2 7f084c43c8c2
8ca 7f084bf738ca
8cf 7f084c43c8cf
8d0 7f084c4458d0
8d4 7f084c43c8d4
8d6 7f084c4458d6
8de 7f084be7f8de
8df 7f084bf738df
8e0 7f084c4458e0
8e3 7f084c4458e3
8f5 7f084c43c8f5
900 7f084be7f900
902 7f084c43c902
90e 7f084c43c90e
90f 7f084be7f90f
910 7f084bf73910
918 7f084be7f918
919 7f084c43c918
91a 7f084bc40918
921 7f084bc40921
923 7f084bf73923
924 7f084c43c924
92d 7f084c43c92d
930 7f084c436930
931 7f084bf73930
932 7f084c43c932
933 7f084be7e930
93c 7f084bf7393c
940 710f4940
941 7f084c43c940
94a 710f494a
950 7f084bf73950
952 7f084bf73952
954 7f084be7e954
956 7f084c43c956
95e 7f084c43695e
95f 7f084be7f95f
960 710f4960
968 7f084be7f968
969 7f084c43c968
96a 7f084bf7396a
96d 7f084be7f96d
971 7f084c436971
972 7f084be7f972
973 7f084c43c971
979 7f084bf73979
97f 7f084c43697f
985 7f084c436985
988 7f084bf73988
98d 7f084bf7398d
990 7f084c43c990
991 7f084be7f991
994 7f084c436994
996 7f084bf73996
99a 7f084c43c99a
99b 7f084bf7399b
99c 7f084c43699c
99f 7f084bf7399f
9b0 7f084c4369b0
9b9 7f084c4369b9
9c0 7f084bf739c0
9ce 7f084bf739ce
9db 7f084bf739db
9e3 7f084bf739e3
9e8 7f084be7e9e8
9f4 7f084be7e9f4
9fb 7f084bf739fb
a00 7f084c436a00
a01 7f084be7ea00
a22 7f084bf73a22
a26 7f084bec3a26
a28 7f084c43ca28
a30 7f084bf2fa30
a32 7f084bf73a32
a35 7f084c43ca35
a3a 7f084bf2fa3a
a3f 7f084be7ea3f
a45 7f084bf2fa45
a47 7f084be7ea47
a48 7f084bf73a48
a50 7f084be7ea50
a56 7f084bf2fa56
a63 7f084bec3a63
a68 7f084c436a68
a74 7f084c436a74
a8b 7f084c436a8b
aa0 7f084bf2faa0
ac6 7f084bf2fac6
acf 7f084bec3acf
ad0 7f084bf2fad0
ad6 7f084bf2fad6
ad8 7f084bf2fad8
ae0 7f084c436ae0
ae1 7f084bf2fae0
ae2 7f084bec3ae2
ae5 7f084bf2fae5
aec 7f084bec3aec
af2 7f084bf2faf2
af5 7f084bec3af5
b05 7f084bec3b05
b10 7f084bf2fb10
b1c 7f084bf73b1c
b1e 7f084bf2fb1e
b22 7f084bf2fb22
b30 7f084bec3b30
b40 7f084bec3b40
b45 7f084bec3b45
b5a 7f084c436b5a
b84 7f084c436b84
b9b 7f084c436b9b
ba8 7f084c436ba8
bb5 7f084c436bb5
bc3 7f084c436bc3
bdc 7f084bec3bdc
be5 7f084bec3be5
bed 7f084c436bed
bff 7f084bec3bff
c20 7f084bec5c20
c21 7f084c436c21
c36 7f084c436c36
c40 7f084c436c40
c41 7f084bec3c41
c49 7f084c436c49
c4e 7f084bec5c4e
c4f 7f084bec3c4f
c62 7f084c436c62
c63 7f084bec5c62
c79 7f084c436c79
c7e 7f084bec5c7e
c87 7f084bec5c87
c8f 7f084c436c8f
c95 7f084bec5c95
c9d 7f084bec5c9d
cb1 7f084bec5cb1
cb2 7f084c436cb2
cb9 7f084bec5cb9
cbe 7f084c436cbe
cc1 7f084bec5cc1
cc3 7f084c436cc3
ccc 7f084bec5ccc
cd5 7f084bec5cd5
ce0 7f084bc3fce0
cfe 7f084c436cfe
d37 7f084bec3d37
d7a 7f084bec3d7a
d8a 7f084bec3d8a
d9f 7f084bec3d9f
dba 7f084bec3dba
dcb 7f084bec3dcb
dd0 7f084bc3fdd0
dd2 7f084bec3dd2
dd6 7f084bc3fdd6
de0 7f084bc3fde0
dee 7f084bec3dee
df6 7f084bec3df6
e10 7f084bc3fe10
e20 7f084bc3fe20
e2a 7f084bc3fe2a
e32 7f084bec5e32
e36 7f084bc3fe36
e7b 7f084bc3fe7b
e80 7f084be78e80
ea5 7f084bec3ea5
ee0 7f084be78ee0
ee1 7f084bec3ee1
efe 7f084bec3efe
eff 7f084be78eff
f20 7f084be78f20
f22 7f084bec3f22
f33 7f084bec3f33
f41 7f084bec3f41
f5c 7f084bec3f5c
f90 7f084bec5f90
fa0 7f084bec2fa0
fae 7f084bec5fae
fb8 7f084bec5fb8
fbe 7f084bec2fbe
